…
## Select samples and SNPs

Some basic information should be assigned use `select_sample_and_SNP()`.
This function will return a QTLseq S3 object.

``` r
x <- select_sample_and_SNP(data = data, highP = "qY", lowP = "R3", highB = "Y", lowB = "R", popType = "F2", bulkSize = c(30, 30))
x
```

    ## $data
    ## # A tibble: 128,751 × 12
    ##    CHROM          POS REF   ALT   HP.DP LP.DP HB.HP.AD HB.LP.AD HB.DP LB.HP.AD
    ##    <chr>        <dbl> <chr> <chr> <int> <int>    <int>    <int> <int>    <int>
    ##  1 scaffoldA01 275959 A     C        17    24        6        6    12       16
    ##  2 scaffoldA01 320766 G     A        19    11        6        6    12       10
    ##  3 scaffoldA01 361230 A     T        18     6        6        5    11        8
    ##  4 scaffoldA01 361486 G     T        26     9       13        5    18        8
    ##  5 scaffoldA01 361875 A     C        19     5        8        0     8        4
    ##  6 scaffoldA01 361884 T     G        19     5        8        0     8        6
    ##  7 scaffoldA01 362128 A     C        19     6        7        5    12        4
    ##  8 scaffoldA01 362153 T     G        20     5        8        5    13        6
    ##  9 scaffoldA01 364170 C     T        17    14       12        9    21       14
    ## 10 scaffoldA01 365454 T     C        18    10       11        5    16       15
    ## # ℹ 128,741 more rows
    ## # ℹ 2 more variables: LB.LP.AD <int>, LB.DP <int>
    ## 
    ## $highP
    ## [1] "qY"
    ## 
    ## $lowP
    ## [1] "R3"
    ## 
…
